{
  "widgetList" : [
    {
      "id" : 9,
      "type" : "steps"
    },
    {
      "id" : 11,
      "type" : "distance"
    },
    {
      "id" : 13,
      "type" : "activityCalories"
    },
    {
      "id" : 15,
      "type" : "calories"
    },
    {
      "id" : 17,
      "type" : "caloriesBMR"
    },
    {
      "id" : 19,
      "type" : "calories"
    },
    {
      "id" : 20,
      "type" : "carbs"
    },
    {
      "id" : 21,
      "type" : "fat"
    },
    {
      "id" : 22,
      "type" : "fiber"
    },
    {
      "id" : 23,
      "type" : "protein"
    },
    {
      "id" : 24,
      "type" : "sodium"
    },
    {
      "id" : 25,
      "type" : "water"
    },
    {
      "id" : 26,
      "type" : "bmi"
    },
    {
      "id" : 27,
      "type" : "fat"
    },
    {
      "id" : 28,
      "type" : "weight"
    },
    {
      "id" : 29,
      "type" : "totalMinutesAsleep"
    },
    {
      "id" : 30,
      "type" : "totalTimeInBed"
    }
  ],
  "healthDataList" : [
  
  {
      "healthTime" : "2017-07-24",
      "healthValue" : 8546,
      "goalValue" : 0,
      "widget" : {
        "id" : 9
      }
    },
    {
      "healthTime" : "2017-07-24",
      "healthValue" : 5158,
      "goalValue" : 0,
      "widget" : {
        "id" : 9
      }
    },
    {
      "healthTime" : "2017-07-24",
      "healthValue" : 7271,
      "goalValue" : 0,
      "widget" : {
        "id" : 9
      }
    },
    {
      "healthTime" : "2017-07-24",
      "healthValue" : 4156,
      "goalValue" : 0,
      "widget" : {
        "id" : 9
      }
    },
    {
      "healthTime" : "2017-07-24",
      "healthValue" : 4381,
      "goalValue" : 0,
      "widget" : {
        "id" : 9
      }
    },
    {
      "healthTime" : "2017-07-24",
      "healthValue" : 2950,
      "goalValue" : 0,
      "widget" : {
        "id" : 9
      }
    },
       {
      "healthTime" : "2017-07-24",
      "healthValue" : 7922,
      "goalValue" : 0,
      "widget" : {
        "id" : 9
      }
    },
    
     {
      "healthTime" : "2017-03-25",
      "healthValue" : 70.69300079345703,
      "goalValue" : 0,
      "widget" : {
        "id" : 28
      }
    },
    {
      "healthTime" : "2017-03-26",
      "healthValue" : 70.64300537109375,
      "goalValue" : 0,
      "widget" : {
        "id" : 28
      }
    },
    {
      "healthTime" : "2017-03-28",
      "healthValue" : 70.67900085449219,
      "goalValue" : 0,
      "widget" : {
        "id" : 28
      }
    },
    {
      "healthTime" : "2017-03-29",
      "healthValue" : 70.84200286865234,
      "goalValue" : 0,
      "widget" : {
        "id" : 28
      }
    },
    {
      "healthTime" : "2017-03-30",
      "healthValue" : 71.7560043334961,
      "goalValue" : 0,
      "widget" : {
        "id" : 28
      }
    },
    {
      "healthTime" : "2017-04-18",
      "healthValue" : 72.66000366210938,
      "goalValue" : 0,
      "widget" : {
        "id" : 28
      }
    },
    {
      "healthTime" : "2017-07-24",
      "healthValue" : 71.53600311279297,
      "goalValue" : 0,
      "widget" : {
        "id" : 28
      }
    },
    
    
     {
      "healthTime" : "2017-07-24",
      "healthValue" : 5.891004523175422,
      "goalValue" : 0,
      "widget" : {
        "id" : 11
      }
    },
    {
      "healthTime" : "2017-07-24",
      "healthValue" : 3.483921752461073,
      "goalValue" : 0,
      "widget" : {
        "id" : 11
      }
    },
    {
      "healthTime" : "2017-07-24",
      "healthValue" : 4.957223619196023,
      "goalValue" : 0,
      "widget" : {
        "id" : 11
      }
    },
    {
      "healthTime" : "2017-07-24",
      "healthValue" : 2.730004787191283,
      "goalValue" : 0,
      "widget" : {
        "id" : 11
      }
    },
    {
      "healthTime" : "2017-07-24",
      "healthValue" : 2.692169196842937,
      "goalValue" : 0,
      "widget" : {
        "id" : 11
      }
    },
    {
      "healthTime" : "2017-07-24",
      "healthValue" : 1.841795067230472,
      "goalValue" : 0,
      "widget" : {
        "id" : 11
      }
    },
    {
      "healthTime" : "2017-07-24",
      "healthValue" : 5.407229849989526,
      "goalValue" : 0,
      "widget" : {
        "id" : 11
      }
    },
    
    
     {
      "healthTime" : "2017-07-24",
      "healthValue" : 480236.6898925963,
      "goalValue" : 0,
      "widget" : {
        "id" : 13
      }
    },
    {
      "healthTime" : "2017-07-24",
      "healthValue" : 292054.605874615,
      "goalValue" : 0,
      "widget" : {
        "id" : 13
      }
    },
    {
      "healthTime" : "2017-07-24",
      "healthValue" : 402970.8200088385,
      "goalValue" : 0,
      "widget" : {
        "id" : 13
      }
    },
    {
      "healthTime" : "2017-07-24",
      "healthValue" : 282796.7246872011,
      "goalValue" : 0,
      "widget" : {
        "id" : 13
      }
    },
    {
      "healthTime" : "2017-07-24",
      "healthValue" : 277506.8494293454,
      "goalValue" : 0,
      "widget" : {
        "id" : 13
      }
    },
    {
      "healthTime" : "2017-07-24",
      "healthValue" : 247863.0888085422,
      "goalValue" : 0,
      "widget" : {
        "id" : 13
      }
    },
    {
      "healthTime" : "2017-07-24",
      "healthValue" : 378454.9111914578,
      "goalValue" : 0,
      "widget" : {
        "id" : 13
      }
    },
    
     {
      "healthTime" : "2017-01-17",
      "healthValue" : 24.46124458312988,
      "goalValue" : 0,
      "widget" : {
        "id" : 26
      }
    },
    {
      "healthTime" : "2017-01-17",
      "healthValue" : 24.44394493103027,
      "goalValue" : 0,
      "widget" : {
        "id" : 26
      }
    },
    {
      "healthTime" : "2017-01-17",
      "healthValue" : 24.45639991760254,
      "goalValue" : 0,
      "widget" : {
        "id" : 26
      }
    },
    {
      "healthTime" : "2017-01-17",
      "healthValue" : 24.51280212402344,
      "goalValue" : 0,
      "widget" : {
        "id" : 26
      }
    },
    {
      "healthTime" : "2017-01-17",
      "healthValue" : 24.82906723022461,
      "goalValue" : 0,
      "widget" : {
        "id" : 26
      }
    },
    {
      "healthTime" : "2017-01-17",
      "healthValue" : 25.14186859130859,
      "goalValue" : 0,
      "widget" : {
        "id" : 26
      }
    },
    {
      "healthTime" : "2017-01-17",
      "healthValue" : 24.7529411315918,
      "goalValue" : 0,
      "widget" : {
        "id" : 26
      }
    },
    
     {
      "healthTime" : "2017-07-24",
      "healthValue" : 480236.6898925963,
      "goalValue" : 0,
      "widget" : {
        "id" : 15
      }
    },
    {
      "healthTime" : "2017-07-24",
      "healthValue" : 292054.605874615,
      "goalValue" : 0,
      "widget" : {
        "id" : 15
      }
    },
    
    {
      "healthTime" : "2017-07-24",
      "healthValue" : 402970.8200088385,
      "goalValue" : 0,
      "widget" : {
        "id" : 15
      }
    },
    {
      "healthTime" : "2017-07-24",
      "healthValue" : 282796.7246872011,
      "goalValue" : 0,
      "widget" : {
        "id" : 15
      }
    },
    {
      "healthTime" : "2017-07-24",
      "healthValue" : 277506.8494293454,
      "goalValue" : 0,
      "widget" : {
        "id" : 15
      }
    },
    {
      "healthTime" : "2017-07-24",
      "healthValue" : 247863.0888085422,
      "goalValue" : 0,
      "widget" : {
        "id" : 15
      }
    },
    {
      "healthTime" : "2017-07-24",
      "healthValue" : 378454.9111914578,
      "goalValue" : 0,
      "widget" : {
        "id" : 15
      }
    },
  
   {
      "healthTime" : "2017-07-24",
      "healthValue" : 1578628.723144531,
      "goalValue" : 0,
      "widget" : {
        "id" : 19
      }
    },
    {
      "healthTime" : "2017-07-24",
      "healthValue" : 1022849.975585938,
      "goalValue" : 0,
      "widget" : {
        "id" :19
      }
    },
    {
      "healthTime" : "2017-07-24",
      "healthValue" : 1467635.42175293,
      "goalValue" : 0,
      "widget" : {
        "id" : 19
      }
    },
    {
      "healthTime" : "2017-07-24",
      "healthValue" : 1503037.185668945,
      "goalValue" : 0,
      "widget" : {
        "id" : 19
      }
    },
    {
      "healthTime" : "2017-07-24",
      "healthValue" : 1862000,
      "goalValue" : 0,
      "widget" : {
        "id" : 19
      }
    },
    {
      "healthTime" : "2017-07-24",
      "healthValue" : 2763387.145996094,
      "goalValue" : 0,
      "widget" : {
        "id" : 19
      }
    },
    {
      "healthTime" : "2017-07-24",
      "healthValue" : 2763387.145996094,
      "goalValue" : 0,
      "widget" : {
        "id" : 19
      }
    },
  
   {
      "healthTime" : "2017-07-24",
      "healthValue" : 1586395.851467988,
      "goalValue" : 0,
      "widget" : {
        "id" : 17
      }
    },
    {
      "healthTime" : "2017-07-24",
      "healthValue" : 1568380.713201383,
      "goalValue" : 0,
      "widget" : {
        "id" : 17
      }
    },
    {
      "healthTime" : "2017-07-24",
      "healthValue" : 1611282.626277602,
      "goalValue" : 0,
      "widget" : {
        "id" : 17
      }
    },
    {
      "healthTime" : "2017-07-24",
      "healthValue" : 1585162.174510884,
      "goalValue" : 0,
      "widget" : {
        "id" : 17
      }
    },
    {
      "healthTime" : "2017-07-24",
      "healthValue" : 1593691.965610459,
      "goalValue" : 0,
      "widget" : {
        "id" : 17
      }
    },
    {
      "healthTime" : "2017-07-24",
      "healthValue" : 1580921.999517513,
      "goalValue" : 0,
      "widget" : {
        "id" : 17
      }
    },
    {
      "healthTime" : "2017-07-24",
      "healthValue" : 1392472.715620379,
      "goalValue" : 0,
      "widget" : {
        "id" : 17
      }
    },
  
  {
      "healthTime" : "2017-07-24",
      "healthValue" : 134.3488006591797,
      "goalValue" : 0,
      "widget" : {
        "id" : 20
      }
    },
    {
      "healthTime" : "2017-07-24",
      "healthValue" : 87.74999928474426,
      "goalValue" : 0,
      "widget" : {
        "id" : 20
      }
    },
    {
      "healthTime" : "2017-07-24",
      "healthValue" : 118.8266025781631,
      "goalValue" : 0,
      "widget" : {
        "id" : 20
      }
    },
    {
      "healthTime" : "2017-07-24",
      "healthValue" : 84.66359901428223,
      "goalValue" : 0,
      "widget" : {
        "id" : 20
      }
    },
    {
      "healthTime" : "2017-07-24",
      "healthValue" : 71.63999938964844,
      "goalValue" : 0,
      "widget" : {
        "id" : 20
      }
    },
    {
      "healthTime" : "2017-07-24",
      "healthValue" : 203.513599395752,
      "goalValue" : 0,
      "widget" : {
        "id" : 20
      }
    },
    {
      "healthTime" : "2017-07-24",
      "healthValue" : 203.513599395752,
      "goalValue" : 0,
      "widget" : {
        "id" : 20
      }
    },
    
     {
      "healthTime" : "2017-07-24",
      "healthValue" : 75.71940040588379,
      "goalValue" : 0,
      "widget" : {
        "id" : 21
      }
    },
    {
      "healthTime" : "2017-07-24",
      "healthValue" : 34.84999847412109,
      "goalValue" : 0,
      "widget" : {
        "id" : 21
      }
    },
    {
      "healthTime" : "2017-07-24",
      "healthValue" : 67.2669005393982,
      "goalValue" : 0,
      "widget" : {
        "id" : 21
      }
    },
    {
      "healthTime" : "2017-07-24",
      "healthValue" : 67.16999959945679,
      "goalValue" : 0,
      "widget" : {
        "id" : 21
      }
    },
    {
      "healthTime" : "2017-07-24",
      "healthValue" : 119,
      "goalValue" : 0,
      "widget" : {
        "id" : 21
      }
    },
    {
      "healthTime" : "2017-07-24",
      "healthValue" : 135.8200035095215,
      "goalValue" : 0,
      "widget" : {
        "id" : 21
      }
    },
    {
      "healthTime" : "2017-07-24",
      "healthValue" : 135.8200035095215,
      "goalValue" : 0,
      "widget" : {
        "id" : 21
      }
    },
    
     {
      "healthTime" : "2017-01-29",
      "healthValue" : 23.60912710428238,
      "goalValue" : 0,
      "widget" : {
        "id" : 27
      }
    },
    {
      "healthTime" : "2017-01-30",
      "healthValue" : 21.8280628323555,
      "goalValue" : 0,
      "widget" : {
        "id" : 27
      }
    },
    {
      "healthTime" : "2017-03-17",
      "healthValue" : 22.12821245193481,
      "goalValue" : 0,
      "widget" : {
        "id" : 27
      }
    },
    {
      "healthTime" : "2017-04-18",
      "healthValue" : 21.27269059419632,
      "goalValue" : 0,
      "widget" : {
        "id" : 27
      }
    },
    {
      "healthTime" : "2017-04-18",
      "healthValue" : 24.06767308712006,
      "goalValue" : 0,
      "widget" : {
        "id" : 27
      }
    },
    {
      "healthTime" : "2017-04-18",
      "healthValue" : 25.54362714290619,
      "goalValue" : 0,
      "widget" : {
        "id" : 27
      }
    },
    {
      "healthTime" : "2017-07-24",
      "healthValue" : 24.79870170354843,
      "goalValue" : 0,
      "widget" : {
        "id" : 27
      }
    },
    
    {
      "healthTime" : "2017-07-24",
      "healthValue" : 18.64879989624023,
      "goalValue" : 0,
      "widget" : {
        "id" : 22
      }
    },
    {
      "healthTime" : "2017-07-24",
      "healthValue" : 5.774999812245369,
      "goalValue" : 0,
      "widget" : {
        "id" : 22
      }
    },
    {
      "healthTime" : "2017-07-24",
      "healthValue" : 10.77889975905418,
      "goalValue" : 0,
      "widget" : {
        "id" : 22
      }
    },
    {
      "healthTime" : "2017-07-24",
      "healthValue" : 27.42799985408783,
      "goalValue" : 0,
      "widget" : {
        "id" : 22
      }
    },
    {
      "healthTime" : "2017-07-24",
      "healthValue" : 18,
      "goalValue" : 0,
      "widget" : {
        "id" : 22
      }
    },
    {
      "healthTime" : "2017-07-24",
      "healthValue" : 39.00300121307373,
      "goalValue" : 0,
      "widget" : {
        "id" : 22
      }
    },
    {
      "healthTime" : "2017-07-24",
      "healthValue" : 39.00300121307373,
      "goalValue" : 0,
      "widget" : {
        "id" : 22
      }
    },
    
    
      {
      "healthTime" : "2017-07-24",
      "healthValue" : 48.35709953308105,
      "goalValue" : 0,
      "widget" : {
        "id" : 23
      }
    },
    {
      "healthTime" : "2017-07-24",
      "healthValue" : 76.60000085830688,
      "goalValue" : 0,
      "widget" : {
        "id" : 23
      }
    },
    {
      "healthTime" : "2017-07-24",
      "healthValue" : 97.18379974365234,
      "goalValue" : 0,
      "widget" : {
        "id" : 23
      }
    },
    {
      "healthTime" : "2017-07-24",
      "healthValue" : 129.996401309967,
      "goalValue" : 0,
      "widget" : {
        "id" : 23
      }
    },
    {
      "healthTime" : "2017-07-24",
      "healthValue" : 114,
      "goalValue" : 0,
      "widget" : {
        "id" : 23
      }
    },
    {
      "healthTime" : "2017-07-24",
      "healthValue" : 146.6963996887207,
      "goalValue" : 0,
      "widget" : {
        "id" : 23
      }
    },
    {
      "healthTime" : "2017-07-24",
      "healthValue" : 146.6963996887207,
      "goalValue" : 0,
      "widget" : {
        "id" : 23
      }
    },
    
    {
      "healthTime" : "2017-07-24",
      "healthValue" : 780.6940078735352,
      "goalValue" : 0,
      "widget" : {
        "id" : 24
      }
    },
    {
      "healthTime" : "2017-07-24",
      "healthValue" : 940.2000308036804,
      "goalValue" : 0,
      "widget" : {
        "id" : 24
      }
    },
    {
      "healthTime" : "2017-07-24",
      "healthValue" : 2226.307019591331,
      "goalValue" : 0,
      "widget" : {
        "id" : 24
      }
    },
    {
      "healthTime" : "2017-07-24",
      "healthValue" : 1632.977243280038,
      "goalValue" : 0,
      "widget" : {
        "id" : 24
      }
    },
    {
      "healthTime" : "2017-07-24",
      "healthValue" : 1606.99999332428,
      "goalValue" : 0,
      "widget" : {
        "id" : 24
      }
    },
    {
      "healthTime" : "2017-07-24",
      "healthValue" : 2369.877174496651,
      "goalValue" : 0,
      "widget" : {
        "id" : 24
      }
    },
    {
      "healthTime" : "2017-07-24",
      "healthValue" : 2369.877174496651,
      "goalValue" : 0,
      "widget" : {
        "id" : 24
      }
    },
    
   {
      "healthTime" : "2017-07-23",
      "healthValue" : "406",
      "goalValue" : 0,
      "widget" : {
        "id" : 29
      }
    },
    {
      "healthTime" : "2017-07-23",
      "healthValue" : "507",
      "goalValue" : 0,
      "widget" : {
        "id" : 29
      }
    },
    {
      "healthTime" : "2017-07-23",
      "healthValue" : "507",
      "goalValue" : 0,
      "widget" : {
        "id" : 29
      }
    },
    {
      "healthTime" : "2017-07-23",
      "healthValue" : "443",
      "goalValue" : 0,
      "widget" : {
        "id" : 29
      }
    },
    {
      "healthTime" : "2017-07-23",
      "healthValue" : "79",
      "goalValue" : 0,
      "widget" : {
        "id" : 29
      }
    },
    {
      "healthTime" : "2017-07-23",
      "healthValue" : "450",
      "goalValue" : 0,
      "widget" : {
        "id" : 29
      }
    },
    {
      "healthTime" : "2017-07-23",
      "healthValue" : "406",
      "goalValue" : 0,
      "widget" : {
        "id" : 29
      }
    },
    {
      "healthTime" : "2017-07-23",
      "healthValue" : "406",
      "goalValue" : 0,
      "widget" : {
        "id" : 30
      }
    },
    {
      "healthTime" : "2017-07-23",
      "healthValue" : "507",
      "goalValue" : 0,
      "widget" : {
        "id" : 30
      }
    },
    {
      "healthTime" : "2017-07-23",
      "healthValue" : "507",
      "goalValue" : 0,
      "widget" : {
        "id" : 30
      }
    },
    {
      "healthTime" : "2017-07-23",
      "healthValue" : "443",
      "goalValue" : 0,
      "widget" : {
        "id" : 30
      }
    },
    {
      "healthTime" : "2017-07-23",
      "healthValue" : "79",
      "goalValue" : 0,
      "widget" : {
        "id" : 30
      }
    },
    {
      "healthTime" : "2017-07-23",
      "healthValue" : "450",
      "goalValue" : 0,
      "widget" : {
        "id" : 30
      }
    },
    {
      "healthTime" : "2017-07-23",
      "healthValue" : "406",
      "goalValue" : 0,
      "widget" : {
        "id" : 30
      }
    },
    
     {
      "healthTime" : "2017-07-24",
      "healthValue" : 2720.76471975,
      "goalValue" : 0,
      "widget" : {
        "id" : 25
      }
    },
    {
      "healthTime" : "2017-07-24",
      "healthValue" : 2720.76471975,
      "goalValue" : 0,
      "widget" : {
        "id" : 25
      }
    },
    {
      "healthTime" : "2017-07-24",
      "healthValue" : 3473.647074500001,
      "goalValue" : 0,
      "widget" : {
        "id" : 25
      }
    },
    {
      "healthTime" : "2017-07-24",
      "healthValue" : 2768.08236705,
      "goalValue" : 0,
      "widget" : {
        "id" : 25
      }
    },
    {
      "healthTime" : "2017-07-24",
      "healthValue" : 2957.35295625,
      "goalValue" : 0,
      "widget" : {
        "id" : 25
      }
    },
    {
      "healthTime" : "2017-07-24",
      "healthValue" : 1892.705892,
      "goalValue" : 0,
      "widget" : {
        "id" : 25
      }
    },
    {
      "healthTime" : "2017-07-24",
      "healthValue" : 1892.705892,
      "goalValue" : 0,
      "widget" : {
        "id" : 25
      }
    }
  ]
}
