{
"userCalendarList" : [
  {
    "event" : "Pizza lunch ",
    "endDate" : "2017-06-20 11:30:00",
    "status" : "Confirmed",
    "occuranceDate" : "2017-06-20 11:30:00",
    "allDay" : true,
    "calendarType" : "calendar",
    "organizer" : "",
    "eventIdentifier" : "EC742CC2-1B16-40C6-831F-4B4254F5D384:5E09979A-914C-40F8-ACD3-8E28C8FD071D",
    "availability" : "Busy",
    "startDate" : "2017-06-20 11:30:00",
    "location" : ""
  },
  {
    "event" : "Garbage",
    "endDate" : "2017-06-21 01:00:00",
    "status" : "Confirmed",
    "occuranceDate" : "2017-06-21 01:00:00",
    "allDay" : true,
    "calendarType" : "calendar",
    "organizer" : "",
    "eventIdentifier" : "EC742CC2-1B16-40C6-831F-4B4254F5D384:5E09979A-914C-40F8-ACD3-8E28C8FD071D",
    "availability" : "Busy",
    "startDate" : "2017-06-21 01:00:00",
    "location" : ""
  },
  {
    "event" : "National Aboriginal Day (Northwest Territories)",
    "endDate" : "2017-06-22 03:59:00",
    "status" : "Confirmed",
    "occuranceDate" : "2017-06-21 04:00:00",
    "allDay" : true,
    "calendarType" : "calendar",
    "organizer" : "",
    "eventIdentifier" : "EC742CC2-1B16-40C6-831F-4B4254F5D384:5E09979A-914C-40F8-ACD3-8E28C8FD071D",
    "availability" : "Busy",
    "startDate" : "2017-06-21 04:00:00",
    "location" : ""
  },
  {
    "event" : "National Aboriginal Day (NT)",
    "endDate" : "2017-06-22 03:59:00",
    "status" : "Confirmed",
    "occuranceDate" : "2017-06-21 04:00:00",
    "allDay" : true,
    "calendarType" : "calendar",
    "organizer" : "",
    "eventIdentifier" : "EC742CC2-1B16-40C6-831F-4B4254F5D384:5E09979A-914C-40F8-ACD3-8E28C8FD071D",
    "availability" : "Busy",
    "startDate" : "2017-06-21 04:00:00",
    "location" : ""
  },
  {
    "event" : "Marketing/Video Weekly Call",
    "endDate" : "2017-06-22 00:30:00",
    "status" : "Confirmed",
    "occuranceDate" : "2017-06-22 00:00:00",
    "allDay" : true,
    "calendarType" : "calendar",
    "organizer" : "",
    "eventIdentifier" : "EC742CC2-1B16-40C6-831F-4B4254F5D384:5E09979A-914C-40F8-ACD3-8E28C8FD071D",
    "availability" : "Busy",
    "startDate" : "2017-06-22 00:00:00",
    "location" : ""
  },
  {
    "event" : "Phase 3 iOS - weekly update meeting",
    "endDate" : "2017-06-22 03:30:00",
    "status" : "Confirmed",
    "occuranceDate" : "2017-06-22 02:30:00",
    "allDay" : true,
    "calendarType" : "calendar",
    "organizer" : "",
    "eventIdentifier" : "EC742CC2-1B16-40C6-831F-4B4254F5D384:5E09979A-914C-40F8-ACD3-8E28C8FD071D",
    "availability" : "Busy",
    "startDate" : "2017-06-22 02:30:00",
    "location" : ""
  },
  {
    "event" : "St. Jean Baptiste Day (QC) (observed)",
    "endDate" : "2017-06-24 03:59:00",
    "status" : "Confirmed",
    "occuranceDate" : "2017-06-23 04:00:00",
    "allDay" : true,
    "calendarType" : "calendar",
    "organizer" : "",
    "eventIdentifier" : "EC742CC2-1B16-40C6-831F-4B4254F5D384:5E09979A-914C-40F8-ACD3-8E28C8FD071D",
    "availability" : "Busy",
    "startDate" : "2017-06-23 04:00:00",
    "location" : ""
  },
   {
    "event" : "Adastra Weekly timesheet",
    "endDate" : "2017-06-23 15:10:00",
    "status" : "Confirmed",
    "occuranceDate" : "2017-06-23 15:00:00",
    "allDay" : true,
    "calendarType" : "calendar",
    "organizer" : "",
    "eventIdentifier" : "EC742CC2-1B16-40C6-831F-4B4254F5D384:5E09979A-914C-40F8-ACD3-8E28C8FD071D",
    "availability" : "Busy",
    "startDate" : "2017-06-23 15:00:00",
    "location" : ""
  },
  {
    "event" : "Music kids",
    "endDate" : "2017-06-23 22:30:00",
    "status" : "Confirmed",
    "occuranceDate" : "2017-06-23 21:30:00",
    "allDay" : true,
    "calendarType" : "calendar",
    "organizer" : "",
    "eventIdentifier" : "EC742CC2-1B16-40C6-831F-4B4254F5D384:5E09979A-914C-40F8-ACD3-8E28C8FD071D",
    "availability" : "Busy",
    "startDate" : "2017-06-23 21:30:00",
    "location" : ""
  },
   {
    "event" : "30min Video b8ta training video call SF with Sean Laux",
    "endDate" : "2017-06-24 00:00:00",
    "status" : "Confirmed",
    "occuranceDate" : "2017-06-23 23:30:00",
    "allDay" : true,
    "calendarType" : "calendar",
    "organizer" : "",
    "eventIdentifier" : "EC742CC2-1B16-40C6-831F-4B4254F5D384:5E09979A-914C-40F8-ACD3-8E28C8FD071D",
    "availability" : "Busy",
    "startDate" : "2017-06-23 23:30:00",
    "location" : ""
  },
  {
    "event" : "St. Jean Baptiste Day (Quebec)",
    "endDate" : "2017-06-25 03:59:00",
    "status" : "Confirmed",
    "occuranceDate" : "2017-06-24 04:00:00",
    "allDay" : true,
    "calendarType" : "calendar",
    "organizer" : "",
    "eventIdentifier" : "EC742CC2-1B16-40C6-831F-4B4254F5D384:5E09979A-914C-40F8-ACD3-8E28C8FD071D",
    "availability" : "Busy",
    "startDate" : "2017-06-24 04:00:00",
    "location" : ""
  },
  {
    "event" : "St. Jean Baptiste Day (QC)",
    "endDate" : "2017-06-25 03:59:00",
    "status" : "Confirmed",
    "occuranceDate" : "2017-06-24 04:00:00",
    "allDay" : true,
    "calendarType" : "calendar",
    "organizer" : "",
    "eventIdentifier" : "EC742CC2-1B16-40C6-831F-4B4254F5D384:5E09979A-914C-40F8-ACD3-8E28C8FD071D",
    "availability" : "Busy",
    "startDate" : "2017-06-24 04:00:00",
    "location" : ""
  },
  {
    "event" : "Michell - Day Shift",
    "endDate" : "2017-06-26 03:59:00",
    "status" : "Confirmed",
    "occuranceDate" : "2017-06-23 04:00:00",
    "allDay" : true,
    "calendarType" : "calendar",
    "organizer" : "",
    "eventIdentifier" : "EC742CC2-1B16-40C6-831F-4B4254F5D384:5E09979A-914C-40F8-ACD3-8E28C8FD071D",
    "availability" : "Busy",
    "startDate" : "2017-06-23 04:00:00",
    "location" : ""
  },
    {
    "event" : "Discovery Day (Newfoundland and Labrador)",
    "endDate" : "2017-06-27 03:59:00",
    "status" : "Confirmed",
    "occuranceDate" : "2017-06-26 04:00:00",
    "allDay" : true,
    "calendarType" : "calendar",
    "organizer" : "",
    "eventIdentifier" : "EC742CC2-1B16-40C6-831F-4B4254F5D384:5E09979A-914C-40F8-ACD3-8E28C8FD071D",
    "availability" : "Busy",
    "startDate" : "2017-06-26 04:00:00",
    "location" : ""
  },
  {
    "event" : "Discovery Day (NF, LR)",
    "endDate" : "2017-06-27 03:59:00",
    "status" : "Confirmed",
    "occuranceDate" : "2017-06-26 04:00:00",
    "allDay" : true,
    "calendarType" : "calendar",
    "organizer" : "",
    "eventIdentifier" : "EC742CC2-1B16-40C6-831F-4B4254F5D384:5E09979A-914C-40F8-ACD3-8E28C8FD071D",
    "availability" : "Busy",
    "startDate" : "2017-06-26 04:00:00",
    "location" : ""
  },
  
  {
    "event" : "Put in the metrics for the San Francisco store",
    "calendarType" : "reminder",
    "startDate" : "2017-06-20 02:00:00"
  },{
    "event" : "Pay the RBC credit line",
    "calendarType" : "reminder",
    "startDate" : "2017-06-23 01:30:00"
  },{
    "event" : "Get the plumbing guys and electrical contacts",
    "calendarType" : "reminder",
    "startDate" : "2017-06-20 02:45:00"
  }
]}
